{"list":{
  "AlbertEinstein": {
    "Quotes": [
      "I have no special talent. I am only passionately curious.",
      "Imagination is more important than knowledge.Knowledge is limited.Imagination encircles the world.",
      "All religions, arts and sciences are branches of the same tree.",
      "I have no special talent. I am only passionately curious.",
      "I speak to everyone in the same way, whether he is the garbage man or the president of the university.",
      "The great moral teachers of humanity were, in a way, artistic geniuses in the art of living.",
      "Imagination is the highest form of research.",
      "If you want your children to be intelligent, read them fairy tales. If you want them to be more intelligent, read them more fairy tales.",
      "The search for truth is more precious than its possession.",
      "Intellectuals solve problems, geniuses prevent them."
    ]
  },
  "WilliamShakespeare": {
    "Quotes": [
      "God has given you one face, and you make yourself another.",
      "It is not in the stars to hold our destiny but in ourselves.",
      "Ignorance is the curse of God, knowledge is the wing wherewith we fly to heaven.",
      "Better three hours too soon than a minute too late.",
      "Listen to many, speak to a few.",
      "Women may fall when there’s no strength in men.",
      "There is nothing either good or bad, but thinking makes it so.",
      "Hell is empty and all the devils are here.",
      "We know what we are, but not what we may be.",
      "You speak an infinite deal of nothing."
    ]
  },
  "MotherTeresa": {
    "Quotes": [
      "If you judge people, you have no time to love them.",
      "If you can’t feed a hundred people, then feed just one.",
      "Love begins at home, and it is not how much we do… but how much love we put in that action.",
      "Yesterday is gone. Tomorrow has not yet come. We have only today. Let us begin.",
      "Kind words can be short and easy to speak, but their echoes are truly endless.",
      "If we really want to love, we must learn how to forgive.",
      "Every time you smile at someone, it is an action of love, a gift to that person, a beautiful thing.",
      "Kind words can be short and easy to speak, but their echoes are truly endless.",
      "The most terrible poverty is loneliness, and the feeling of being unloved.",
      "What can you do to promote world peace? Go home and love your family."
    ]
  }
}
}
